{
  "name" : "GiftCardResults-1560471890453",
  "sourceOrgId" : "cZmYNKV8x67b4TKz4FwPiQ",
  "sourceOrgName" : "David Jones Ltd",
  "exportedObjects" : [ {
    "objectGuid" : "l5piuKwJTSbhZyiNHEwjCh",
    "objectName" : "API Integrations",
    "objectType" : "Project",
    "path" : "/Explore",
    "metadata" : {
      "modelVersion" : {
        "major" : 0,
        "minor" : 0
      },
      "repoInfo" : null,
      "objectRefs" : [ ],
      "contextAttributes" : [ ],
      "additionalInfo" : {
        "description" : "All API Integrations within David Jones and CRG",
        "contentType" : "Binary",
        "documentState" : "COMPLETE"
      }
    }
  }, {
    "objectGuid" : "4sheD1L0Wl2dCSKW1iv8Cc",
    "objectName" : "GiftCardResults",
    "objectType" : "PROCESS_OBJECT",
    "path" : "/Explore/API Integrations/GiveX",
    "metadata" : {
      "modelVersion" : {
        "major" : 1,
        "minor" : 0
      },
      "repoInfo" : {
        "repoHandle" : "0clkZ2sBsoZduD2-gt-9299638-2019-05-30T01:00:19.851Z::po.xml"
      },
      "objectRefs" : [ ],
      "contextAttributes" : null,
      "additionalInfo" : {
        "description" : "",
        "contentType" : "application/json; charset=utf-8",
        "documentState" : "VALID"
      }
    }
  }, {
    "objectGuid" : "1EJnJXUNL8LdqQNtycr96I",
    "objectName" : "GiveX",
    "objectType" : "Folder",
    "path" : "/Explore/API Integrations",
    "metadata" : {
      "modelVersion" : {
        "major" : 0,
        "minor" : 0
      },
      "repoInfo" : null,
      "objectRefs" : [ ],
      "contextAttributes" : [ ],
      "additionalInfo" : {
        "description" : "GiveX Integration Processes",
        "contentType" : "Binary",
        "documentState" : "COMPLETE"
      }
    }
  } ]
}