{
  "name" : "Benefits-1560997002947",
  "sourceOrgId" : "cZmYNKV8x67b4TKz4FwPiQ",
  "sourceOrgName" : "David Jones Ltd",
  "exportedObjects" : [ {
    "objectGuid" : "l5piuKwJTSbhZyiNHEwjCh",
    "objectName" : "API Integrations",
    "objectType" : "Project",
    "path" : "/Explore",
    "metadata" : {
      "modelVersion" : {
        "major" : 0,
        "minor" : 0
      },
      "repoInfo" : null,
      "objectRefs" : [ ],
      "contextAttributes" : [ ],
      "additionalInfo" : {
        "description" : "All API Integrations within David Jones and CRG",
        "contentType" : "Binary",
        "documentState" : "COMPLETE"
      }
    }
  }, {
    "objectGuid" : "7XvkPrKMDG9lfMcNVKD2S8",
    "objectName" : "GiftCards",
    "objectType" : "PROCESS_OBJECT",
    "path" : "/Explore/API Integrations/eStar",
    "metadata" : {
      "modelVersion" : {
        "major" : 1,
        "minor" : 0
      },
      "repoInfo" : {
        "repoHandle" : "3ZEnPCOkSSHCwkN-gt-11904103-2019-05-08T04:24:17.882Z::po.xml"
      },
      "objectRefs" : [ "1RZlBwfHPCabCnCWmIe06Y" ],
      "contextAttributes" : null,
      "additionalInfo" : {
        "description" : "",
        "contentType" : "application/json; charset=utf-8",
        "documentState" : "VALID"
      }
    }
  }, {
    "objectGuid" : "fI0QdDkf7g5i0qaF26D42C",
    "objectName" : "PromotionOffer",
    "objectType" : "PROCESS_OBJECT",
    "path" : "/Explore/API Integrations/eStar",
    "metadata" : {
      "modelVersion" : {
        "major" : 1,
        "minor" : 0
      },
      "repoInfo" : {
        "repoHandle" : "qbeKF96xZ6or3rp-gt-4604679-2019-05-22T00:12:32.65Z::po.xml"
      },
      "objectRefs" : [ ],
      "contextAttributes" : null,
      "additionalInfo" : {
        "description" : "",
        "contentType" : "application/json; charset=utf-8",
        "documentState" : "VALID"
      }
    }
  }, {
    "objectGuid" : "4UyNs9rNyGHbZMbm09yoUj",
    "objectName" : "Promotions",
    "objectType" : "PROCESS_OBJECT",
    "path" : "/Explore/API Integrations/eStar",
    "metadata" : {
      "modelVersion" : {
        "major" : 1,
        "minor" : 0
      },
      "repoInfo" : {
        "repoHandle" : "XdvB8aabbgdoGsF-gt-29856-2019-05-22T00:14:32.794Z::po.xml"
      },
      "objectRefs" : [ "fI0QdDkf7g5i0qaF26D42C" ],
      "contextAttributes" : null,
      "additionalInfo" : {
        "description" : "",
        "contentType" : "application/json; charset=utf-8",
        "documentState" : "VALID"
      }
    }
  }, {
    "objectGuid" : "3idES4KXhYfjqRP2YKrcGX",
    "objectName" : "Benefits",
    "objectType" : "PROCESS_OBJECT",
    "path" : "/Explore/API Integrations/eStar",
    "metadata" : {
      "modelVersion" : {
        "major" : 1,
        "minor" : 0
      },
      "repoInfo" : {
        "repoHandle" : "n478OHDvGFaaaaa-gt-11871380-2019-05-08T02:16:45.221Z::po.xml"
      },
      "objectRefs" : [ "7XvkPrKMDG9lfMcNVKD2S8", "4UyNs9rNyGHbZMbm09yoUj" ],
      "contextAttributes" : null,
      "additionalInfo" : {
        "description" : "eStar Gift Card Response Parent",
        "contentType" : "application/json; charset=utf-8",
        "documentState" : "VALID"
      }
    }
  }, {
    "objectGuid" : "1RZlBwfHPCabCnCWmIe06Y",
    "objectName" : "GiftCardReward",
    "objectType" : "PROCESS_OBJECT",
    "path" : "/Explore/API Integrations/eStar",
    "metadata" : {
      "modelVersion" : {
        "major" : 1,
        "minor" : 0
      },
      "repoInfo" : {
        "repoHandle" : "m6kbeJHQjATO9pH-gt-484342-2019-05-08T04:23:08.198Z::po.xml"
      },
      "objectRefs" : [ ],
      "contextAttributes" : null,
      "additionalInfo" : {
        "description" : "",
        "contentType" : "application/json; charset=utf-8",
        "documentState" : "VALID"
      }
    }
  }, {
    "objectGuid" : "9J76sCjtXBbf59F7BzmxwH",
    "objectName" : "eStar",
    "objectType" : "Folder",
    "path" : "/Explore/API Integrations",
    "metadata" : {
      "modelVersion" : {
        "major" : 0,
        "minor" : 0
      },
      "repoInfo" : null,
      "objectRefs" : [ ],
      "contextAttributes" : [ ],
      "additionalInfo" : {
        "description" : "eStar integration processes",
        "contentType" : "Binary",
        "documentState" : "COMPLETE"
      }
    }
  } ]
}